[
  {"username":"mina","email":"mina@gmail.com","state":"enable"},
  {"username":"arash","email":"arash@gmail.com","state":"disable"},
  {"username":"sara","email":"sara@gmail.com","state":"disable"},
  {"username":"milad","email":"milad@gmail.com","state":"enable"}]